723165 659397 504
261696 289049 407
457828 176871 449
436068 864158 525
304652 492010 449
546513 431100 470
293199 749847 509
657680 617373 509
827206 494380 509
417408 177090 449
908971 191498 525
749469 820541 468
196809 240715 443
960960 242903 525
210898 606194 470
947381 162498 525
547834 187499 470
104832 8216 351
52213 906353 525
457790 160803 449
101678 392947 443
832953 185400 509
133459 135423 344
787377 119035 509
947535 398788 525
58080 925554 525
885935 272307 525
1540 831123 509
829348 145274 509
588839 950595 525
560986 792464 509
952500 412327 525
989234 283641 525
501735 610213 470
878999 647903 525
133474 447251 449
516527 385053 470
473491 63431 449
962021 433842 525
542726 283369 470
897435 780206 525
726292 601779 509
294657 824546 509
843323 582896 525
405874 849496 525
502553 838157 525
625257 661773 509
549520 359218 470
186480 168799 365
250721 350128 441
923889 309639 525
891561 848783 445
847306 917040 476
324344 312922 371
724323 683020 504
587192 792920 509
687341 134234 509
884818 400557 525
364831 630151 509
15361 446348 449
950719 346522 525
26579 310538 443
27664 716705 509
593278 123358 470
243936 44758 443
472889 307034 449
82713 607331 470
909461 549064 525
118159 625243 470
934239 568620 525
371327 665478 509
248710 930797 525
481908 294048 449
728220 566570 509
398802 587727 470
733770 388508 509
645046 208400 509
466736 469592 413
106459 902081 525
844467 216663 525
440876 947234 525
665192 65081 509
783456 633331 504
451387 622989 470
176186 301977 443
657381 326672 509
184920 234339 443
859659 425207 525
488906 975568 525
697589 556694 509
692358 758857 504
349463 447504 449
154195 234065 443
852360 649026 525
12315 910342 525
836166 726982 468
994775 830242 525
751583 26397 509
906758 407908 525
285742 267848 407
905899 617718 525
278553 152838 443
67440 10572 340
873358 421579 525
961373 541180 525
381853 69951 443
537853 604474 452
969488 194528 525
35421 88732 351
153693 552163 470
640875 238963 509
976148 34156 525
64939 803129 509
191925 592332 470
697241 977168 525
761371 966095 525
256861 222116 443
547084 206194 470
488163 317720 449
212016 22172 383
384123 258155 441
335278 678042 509
465194 583366 470
679252 498988 509
121189 410981 449
508785 194793 449
382007 404168 436
111863 715373 509
321295 277644 389
875648 421148 525
190976 896703 525
549539 500005 470
263477 974897 525
236001 839716 525
299017 355617 441
424888 546603 470
747467 245817 509
733533 944016 525
151535 743279 509
980813 433856 525
987302 967125 458
132748 359335 443
337169 100280 443
731925 369815 509
531354 775704 509
571657 538046 452
97644 938910 525
636408 946300 525
709173 518407 509
466039 116300 449
189255 922147 525
817963 358968 509
653613 913217 525
243761 474857 449
101888 622107 470
508589 459006 444
872495 691263 525
99785 370797 443
793430 104147 509
119179 291191 443
786793 243109 509
858402 352273 525
291698 972242 525
285409 666589 509
369887 665627 509
408427 414684 449
890593 245487 525
822613 198590 509
2019 114055 354
898226 142002 525
261694 61405 443
547778 788118 509
707796 730233 411
331345 779044 509
902157 364606 525
695952 791891 504
778043 509485 509
470426 153754 449
193794 613110 470
644676 721518 504
29709 728698 509
995324 94989 525
940376 399771 525
364106 785625 509
70099 656150 509
311880 297840 371
877557 210659 525
270626 513951 470
986584 68554 525
814715 376316 509
543758 696948 509
973172 266694 525
838443 558081 525
282941 721791 509
59161 234154 443
234862 989550 525
728946 273460 509
251009 448498 449
580205 976148 525
331787 855938 525
302555 247655 407
178447 196592 365
886855 500254 525
900778 739390 525
288938 49269 443
441265 537278 470
566325 767117 509
364326 287345 441
40498 911550 525
21676 541732 470
149654 487969 449
68267 615814 470
82750 887688 525
868862 605760 525
298259 981849 525
448404 429100 400
851741 567430 525
803056 509299 509
771571 62214 509
309482 861258 525
148249 185515 383
785381 555140 509
100050 629349 509
402463 957175 525
677949 103135 509
336878 438398 449
109626 414925 449
479963 736068 509
328735 590299 470
268795 866101 525
209220 726125 509
645469 342392 509
847704 931227 476
236420 103148 443
322390 884489 525
230190 786063 509
7079 363277 443
584592 188240 470
273556 390978 441
419436 548285 470
162821 684303 509
707034 72408 509
470110 610492 470
491378 457354 444
908765 665860 525
836449 289520 509
136120 364419 443
584068 26113 470
340687 627479 509
530404 470133 470
